trace.vcd
$timescale 1 us $end
$scope module top $end
$var wire 32 ! pc $end
$scope module bus $end
$var wire 32 " addr $end
$var wire 8 # data $end
$var wire 1 $ we $end
$upscope $end
$upscope $end
$enddefinitions $end
#0
b00000000000000000000000000000000 !
b00000000000000000000000000000000 "
b00000000 #
0$
b00000000000000100000000011100101 !
0$
#1
b00000000000000100000000011100111 !
0$
#2
b00000000000000100000000011101001 !
0$
#4
b00000000000000100000000011101101 !
0$
#5
b00000000000000100000000011101111 !
0$
#6
b00000000000000100000000011110001 !
0$
#7
b00000000000000100000000011110011 !
0$
#8
b00000000000000100000000011110011 !
0$
#9
b00000000000000100000000011110011 !
0$
#10
b00000000000000100000000011110011 !
0$
#11
b00000000000000100000000011110011 !
0$
#12
b00000000000000100000000011110011 !
0$
#13
b00000000000000100000000011110011 !
0$
#14
b00000000000000100000000011110011 !
0$
#15
b00000000000000100000000011110011 !
0$
#16
b00000000000000100000000011110011 !
0$
#17
b00000000000000100000000011110011 !
0$
#18
b00000000000000100000000011110011 !
0$
#19
b00000000000000100000000011110011 !
0$
#20
b00000000000000100000000011110011 !
0$
#21
b00000000000000100000000011110011 !
0$
#22
b00000000000000100000000011110011 !
0$
#23
b00000000000000100000000011110011 !
0$
#24
b00000000000000100000000011110011 !
0$
#25
b00000000000000100000000011110011 !
0$
#26
b00000000000000100000000011110011 !
0$
#27
b00000000000000100000000011110011 !
0$
#28
b00000000000000100000000011110011 !
0$
#29
b00000000000000100000000011110011 !
0$
#30
b00000000000000100000000011110011 !
0$
#31
b00000000000000100000000011110011 !
0$
#32
b00000000000000100000000011110011 !
0$
#33
b00000000000000100000000011110011 !
0$
#34
b00000000000000100000000011110011 !
0$
#35
b00000000000000100000000011110011 !
0$
#36
b00000000000000100000000011110011 !
0$
#37
b00000000000000100000000011110011 !
0$
#38
b00000000000000100000000011110011 !
0$
#39
b00000000000000100000000011110011 !
0$
#40
b00000000000000100000000011110011 !
0$
#41
b00000000000000100000000011110011 !
0$
#42
b00000000000000100000000011110011 !
0$
#43
b00000000000000100000000011110011 !
0$
#44
b00000000000000100000000011110011 !
0$
#45
b00000000000000100000000011110011 !
0$
#46
b00000000000000100000000011110011 !
0$
#47
b00000000000000100000000011110011 !
0$
#48
b00000000000000100000000011110011 !
0$
#49
b00000000000000100000000011110011 !
0$
#50
b00000000000000100000000011110011 !
0$
#51
b00000000000000100000000011110011 !
0$
#52
b00000000000000100000000011110011 !
0$
#53
b00000000000000100000000011110011 !
0$
#54
b00000000000000100000000011110011 !
0$
#55
b00000000000000100000000011110011 !
0$
#56
b00000000000000100000000011110011 !
0$
#57
b00000000000000100000000011110011 !
0$
#58
b00000000000000100000000011110011 !
0$
#59
b00000000000000100000000011110011 !
0$
#60
b00000000000000100000000011110011 !
0$
#61
b00000000000000100000000011110011 !
0$
#62
b00000000000000100000000011110011 !
0$
#63
b00000000000000100000000011110011 !
0$
#64
b00000000000000100000000011110011 !
0$
#65
b00000000000000100000000011110011 !
0$
#66
b00000000000000100000000011110011 !
0$
#67
b00000000000000100000000011110011 !
0$
#68
b00000000000000100000000011110011 !
0$
#69
b00000000000000100000000011110011 !
0$
#70
b00000000000000100000000011110011 !
0$
#71
b00000000000000100000000011110011 !
0$
#72
b00000000000000100000000011110011 !
0$
#73
b00000000000000100000000011110011 !
0$
#74
b00000000000000100000000011110011 !
0$
#75
b00000000000000100000000011110011 !
0$
#76
b00000000000000100000000011110011 !
0$
#77
b00000000000000100000000011110011 !
0$
#78
b00000000000000100000000011110011 !
0$
#79
b00000000000000100000000011110011 !
0$
#80
b00000000000000100000000011110011 !
0$
#81
b00000000000000100000000011110011 !
0$
#82
b00000000000000100000000011110011 !
0$
#83
b00000000000000100000000011110011 !
0$
#84
b00000000000000100000000011110011 !
0$
#85
b00000000000000100000000011110011 !
0$
#86
b00000000000000100000000011110011 !
0$
#87
b00000000000000100000000011110011 !
0$
#88
b00000000000000100000000011110011 !
0$
#89
b00000000000000100000000011110011 !
0$
#90
b00000000000000100000000011110011 !
0$
#91
b00000000000000100000000011110011 !
0$
#92
b00000000000000100000000011110011 !
0$
#93
b00000000000000100000000011110011 !
0$
#94
b00000000000000100000000011110011 !
0$
#95
b00000000000000100000000011110011 !
0$
#96
b00000000000000100000000011110011 !
0$
#97
b00000000000000100000000011110011 !
0$
#98
b00000000000000100000000011110011 !
0$
#99
b00000000000000100000000011110011 !
0$
#100
b00000000000000100000000011110011 !
0$
#101
b00000000000000100000000011110011 !
0$
#102
b00000000000000100000000011110011 !
0$
#103
b00000000000000100000000011110011 !
0$
#104
b00000000000000100000000011110011 !
0$
#105
b00000000000000100000000011110011 !
0$
#106
b00000000000000100000000011110011 !
0$
#107
b00000000000000100000000011110011 !
0$
#108
b00000000000000100000000011110011 !
0$
#109
b00000000000000100000000011110011 !
0$
#110
b00000000000000100000000011110011 !
0$
#111
b00000000000000100000000011110011 !
0$
#112
b00000000000000100000000011110011 !
0$
#113
b00000000000000100000000011110011 !
0$
#114
b00000000000000100000000011110011 !
0$
#115
b00000000000000100000000011110011 !
0$
#116
b00000000000000100000000011110011 !
0$
#117
b00000000000000100000000011110011 !
0$
#118
b00000000000000100000000011110011 !
0$
#119
b00000000000000100000000011110011 !
0$
#120
b00000000000000100000000011110011 !
0$
#121
b00000000000000100000000011110011 !
0$
#122
b00000000000000100000000011110011 !
0$
#123
b00000000000000100000000011110011 !
0$
#124
b00000000000000100000000011110011 !
0$
#125
b00000000000000100000000011110011 !
0$
#126
b00000000000000100000000011110011 !
0$
#127
b00000000000000100000000011110011 !
0$
#128
b00000000000000100000000011110011 !
0$
#129
b00000000000000100000000011110011 !
0$
#130
b00000000000000100000000011110011 !
0$
#131
b00000000000000100000000011110011 !
0$
#132
b00000000000000100000000011110011 !
0$
#133
b00000000000000100000000011110011 !
0$
#134
b00000000000000100000000011110011 !
0$
#135
b00000000000000100000000011110011 !
0$
#136
b00000000000000100000000011110011 !
0$
#137
b00000000000000100000000011110011 !
0$
#138
b00000000000000100000000011110011 !
0$
#139
b00000000000000100000000011110011 !
0$
#140
b00000000000000100000000011110011 !
0$
#141
b00000000000000100000000011110011 !
0$
#142
b00000000000000100000000011110011 !
0$
#143
b00000000000000100000000011110011 !
0$
#144
b00000000000000100000000011110011 !
0$
#145
b00000000000000100000000011110011 !
0$
#146
b00000000000000100000000011110011 !
0$
#147
b00000000000000100000000011110011 !
0$
#148
b00000000000000100000000011110011 !
0$
#149
b00000000000000100000000011110011 !
0$
#150
b00000000000000100000000011110011 !
0$
#151
b00000000000000100000000011110011 !
0$
#152
b00000000000000100000000011110011 !
0$
#153
b00000000000000100000000011110011 !
0$
#154
b00000000000000100000000011110011 !
0$
#155
b00000000000000100000000011110011 !
0$
#156
b00000000000000100000000011110011 !
0$
#157
b00000000000000100000000011110011 !
0$
#158
b00000000000000100000000011110011 !
0$
#159
b00000000000000100000000011110011 !
0$
#160
b00000000000000100000000011110011 !
0$
#161
b00000000000000100000000011110011 !
0$
#162
b00000000000000100000000011110011 !
0$
#163
b00000000000000100000000011110011 !
0$
#164
b00000000000000100000000011110011 !
0$
#165
b00000000000000100000000011110011 !
0$
#166
b00000000000000100000000011110011 !
0$
#167
b00000000000000100000000011110011 !
0$
#168
b00000000000000100000000011110011 !
0$
#169
b00000000000000100000000011110011 !
0$
#170
b00000000000000100000000011110011 !
0$
#171
b00000000000000100000000011110011 !
0$
#172
b00000000000000100000000011110011 !
0$
#173
b00000000000000100000000011110011 !
0$
#174
b00000000000000100000000011110011 !
0$
#175
b00000000000000100000000011110011 !
0$
#176
b00000000000000100000000011110011 !
0$
#177
b00000000000000100000000011110011 !
0$
#178
b00000000000000100000000011110011 !
0$
#179
b00000000000000100000000011110011 !
0$
#180
b00000000000000100000000011110011 !
0$
#181
b00000000000000100000000011110011 !
0$
#182
b00000000000000100000000011110011 !
0$
#183
b00000000000000100000000011110011 !
0$
#184
b00000000000000100000000011110011 !
0$
#185
b00000000000000100000000011110011 !
0$
#186
b00000000000000100000000011110011 !
0$
#187
b00000000000000100000000011110011 !
0$
#188
b00000000000000100000000011110011 !
0$
#189
b00000000000000100000000011110011 !
0$
#190
b00000000000000100000000011110011 !
0$
#191
b00000000000000100000000011110011 !
0$
#192
b00000000000000100000000011110011 !
0$
#193
b00000000000000100000000011110011 !
0$
#194
b00000000000000100000000011110011 !
0$
#195
b00000000000000100000000011110011 !
0$
#196
b00000000000000100000000011110011 !
0$
#197
b00000000000000100000000011110011 !
0$
#198
b00000000000000100000000011110011 !
0$
#199
b00000000000000100000000011110011 !
0$
#200
b00000000000000100000000011110011 !
0$
#201
b00000000000000100000000011110011 !
0$
#202
b00000000000000100000000011110011 !
0$
#203
b00000000000000100000000011110011 !
0$
#204
b00000000000000100000000011110011 !
0$
#205
b00000000000000100000000011110011 !
0$
#206
b00000000000000100000000011110011 !
0$
#207
b00000000000000100000000011110011 !
0$
#208
b00000000000000100000000011110011 !
0$
#209
b00000000000000100000000011110011 !
0$
#210
b00000000000000100000000011110011 !
0$
#211
b00000000000000100000000011110011 !
0$
#212
b00000000000000100000000011110011 !
0$
#213
b00000000000000100000000011110011 !
0$
#214
b00000000000000100000000011110011 !
0$
#215
b00000000000000100000000011110011 !
0$
#216
b00000000000000100000000011110011 !
0$
#217
b00000000000000100000000011110011 !
0$
#218
b00000000000000100000000011110011 !
0$
#219
b00000000000000100000000011110011 !
0$
#220
b00000000000000100000000011110011 !
0$
#221
b00000000000000100000000011110011 !
0$
#222
b00000000000000100000000011110011 !
0$
#223
b00000000000000100000000011110011 !
0$
#224
b00000000000000100000000011110011 !
0$
#225
b00000000000000100000000011110011 !
0$
#226
b00000000000000100000000011110011 !
0$
#227
b00000000000000100000000011110011 !
0$
#228
b00000000000000100000000011110011 !
0$
#229
b00000000000000100000000011110011 !
0$
#230
b00000000000000100000000011110011 !
0$
#231
b00000000000000100000000011110011 !
0$
#232
b00000000000000100000000011110011 !
0$
#233
b00000000000000100000000011110011 !
0$
#234
b00000000000000100000000011110011 !
0$
#235
b00000000000000100000000011110011 !
0$
#236
b00000000000000100000000011110011 !
0$
#237
b00000000000000100000000011110011 !
0$
#238
b00000000000000100000000011110011 !
0$
#239
b00000000000000100000000011110011 !
0$
#240
b00000000000000100000000011110011 !
0$
#241
b00000000000000100000000011110011 !
0$
#242
b00000000000000100000000011110011 !
0$
#243
b00000000000000100000000011110011 !
0$
#244
b00000000000000100000000011110011 !
0$
#245
b00000000000000100000000011110011 !
0$
#246
b00000000000000100000000011110011 !
0$
#247
b00000000000000100000000011110011 !
0$
#248
b00000000000000100000000011110011 !
0$
#249
b00000000000000100000000011110011 !
0$
#250
b00000000000000100000000011110011 !
0$
#251
b00000000000000100000000011110011 !
0$
#252
b00000000000000100000000011110011 !
0$
#253
b00000000000000100000000011110011 !
0$
#254
b00000000000000100000000011110011 !
0$
#255
b00000000000000100000000011110011 !
0$
#256
b00000000000000100000000011110011 !
0$
#257
b00000000000000100000000011110011 !
0$
#258
b00000000000000100000000011110011 !
0$
#259
b00000000000000100000000011110011 !
0$
#260
b00000000000000100000000011110011 !
0$
#261
b00000000000000100000000011110011 !
0$
#262
b00000000000000100000000011110011 !
0$
#263
b00000000000000100000000011110011 !
0$
#264
b00000000000000100000000011110011 !
0$
#265
b00000000000000100000000011110011 !
0$
#266
b00000000000000100000000011110011 !
0$
#267
b00000000000000100000000011110011 !
0$
#268
b00000000000000100000000011110011 !
0$
#269
b00000000000000100000000011110011 !
0$
#270
b00000000000000100000000011110011 !
0$
#271
b00000000000000100000000011110011 !
0$
#272
b00000000000000100000000011110011 !
0$
#273
b00000000000000100000000011110011 !
0$
#274
b00000000000000100000000011110011 !
0$
#275
b00000000000000100000000011110011 !
0$
#276
b00000000000000100000000011110011 !
0$
#277
b00000000000000100000000011110011 !
0$
#278
b00000000000000100000000011110011 !
0$
#279
b00000000000000100000000011110011 !
0$
#280
b00000000000000100000000011110011 !
0$
#281
b00000000000000100000000011110011 !
0$
#282
b00000000000000100000000011110011 !
0$
#283
b00000000000000100000000011110011 !
0$
#284
b00000000000000100000000011110011 !
0$
#285
b00000000000000100000000011110011 !
0$
#286
b00000000000000100000000011110011 !
0$
#287
b00000000000000100000000011110011 !
0$
#288
b00000000000000100000000011110011 !
0$
#289
b00000000000000100000000011110011 !
0$
#290
b00000000000000100000000011110011 !
0$
#291
b00000000000000100000000011110011 !
0$
#292
b00000000000000100000000011110011 !
0$
#293
b00000000000000100000000011110011 !
0$
#294
b00000000000000100000000011110011 !
0$
#295
b00000000000000100000000011110011 !
0$
#296
b00000000000000100000000011110011 !
0$
#297
b00000000000000100000000011110011 !
0$
#298
b00000000000000100000000011110011 !
0$
#299
b00000000000000100000000011110011 !
0$
#300
b00000000000000100000000011110011 !
0$
#301
b00000000000000100000000011110011 !
0$
#302
b00000000000000100000000011110011 !
0$
#303
b00000000000000100000000011110011 !
0$
#304
b00000000000000100000000011110011 !
0$
#305
b00000000000000100000000011110011 !
0$
#306
b00000000000000100000000011110011 !
0$
#307
b00000000000000100000000011110011 !
0$
#308
b00000000000000100000000011110011 !
0$
#309
b00000000000000100000000011110011 !
0$
#310
b00000000000000100000000011110011 !
0$
#311
b00000000000000100000000011110011 !
0$
#312
b00000000000000100000000011110011 !
0$
#313
b00000000000000100000000011110011 !
0$
#314
b00000000000000100000000011110011 !
0$
#315
b00000000000000100000000011110011 !
0$
#316
b00000000000000100000000011110011 !
0$
#317
b00000000000000100000000011110011 !
0$
#318
b00000000000000100000000011110011 !
0$
#319
b00000000000000100000000011110011 !
0$
#320
b00000000000000100000000011110011 !
0$
#321
b00000000000000100000000011110011 !
0$
#322
b00000000000000100000000011110011 !
0$
#323
b00000000000000100000000011110011 !
0$
#324
b00000000000000100000000011110011 !
0$
#325
b00000000000000100000000011110011 !
0$
#326
b00000000000000100000000011110011 !
0$
#327
b00000000000000100000000011110011 !
0$
#328
b00000000000000100000000011110011 !
0$
#329
b00000000000000100000000011110011 !
0$
#330
b00000000000000100000000011110011 !
0$
#331
b00000000000000100000000011110011 !
0$
#332
b00000000000000100000000011110011 !
0$
#333
b00000000000000100000000011110011 !
0$
#334
b00000000000000100000000011110011 !
0$
#335
b00000000000000100000000011110011 !
0$
#336
b00000000000000100000000011110011 !
0$
#337
b00000000000000100000000011110011 !
0$
#338
b00000000000000100000000011110011 !
0$
#339
b00000000000000100000000011110011 !
0$
#340
b00000000000000100000000011110011 !
0$
#341
b00000000000000100000000011110011 !
0$
#342
b00000000000000100000000011110011 !
0$
#343
b00000000000000100000000011110011 !
0$
#344
b00000000000000100000000011110011 !
0$
#345
b00000000000000100000000011110011 !
0$
#346
b00000000000000100000000011110011 !
0$
#347
b00000000000000100000000011110011 !
0$
#348
b00000000000000100000000011110011 !
0$
#349
b00000000000000100000000011110011 !
0$
#350
b00000000000000100000000011110011 !
0$
#351
b00000000000000100000000011110011 !
0$
#352
b00000000000000100000000011110011 !
0$
#353
b00000000000000100000000011110011 !
0$
#354
b00000000000000100000000011110011 !
0$
#355
b00000000000000100000000011110011 !
0$
#356
b00000000000000100000000011110011 !
0$
#357
b00000000000000100000000011110011 !
0$
#358
b00000000000000100000000011110011 !
0$
#359
b00000000000000100000000011110011 !
0$
#360
b00000000000000100000000011110011 !
0$
#361
b00000000000000100000000011110011 !
0$
#362
b00000000000000100000000011110011 !
0$
#363
b00000000000000100000000011110011 !
0$
#364
b00000000000000100000000011110011 !
0$
#365
b00000000000000100000000011110011 !
0$
#366
b00000000000000100000000011110011 !
0$
#367
b00000000000000100000000011110011 !
0$
#368
b00000000000000100000000011110011 !
0$
#369
b00000000000000100000000011110011 !
0$
#370
b00000000000000100000000011110011 !
0$
#371
b00000000000000100000000011110011 !
0$
#372
b00000000000000100000000011110011 !
0$
#373
b00000000000000100000000011110011 !
0$
#374
b00000000000000100000000011110011 !
0$
#375
b00000000000000100000000011110011 !
0$
#376
b00000000000000100000000011110011 !
0$
#377
b00000000000000100000000011110011 !
0$
#378
b00000000000000100000000011110011 !
0$
#379
b00000000000000100000000011110011 !
0$
#380
b00000000000000100000000011110011 !
0$
#381
b00000000000000100000000011110011 !
0$
#382
b00000000000000100000000011110011 !
0$
#383
b00000000000000100000000011110011 !
0$
#384
b00000000000000100000000011110011 !
0$
#385
b00000000000000100000000011110011 !
0$
#386
b00000000000000100000000011110011 !
0$
#387
b00000000000000100000000011110011 !
0$
#388
b00000000000000100000000011110011 !
0$
#389
b00000000000000100000000011110011 !
0$
#390
b00000000000000100000000011110011 !
0$
#391
b00000000000000100000000011110011 !
0$
#392
b00000000000000100000000011110011 !
0$
#393
b00000000000000100000000011110011 !
0$
#394
b00000000000000100000000011110011 !
0$
#395
b00000000000000100000000011110011 !
0$
#396
b00000000000000100000000011110011 !
0$
#397
b00000000000000100000000011110011 !
0$
#398
b00000000000000100000000011110011 !
0$
#399
b00000000000000100000000011110011 !
0$
#400
b00000000000000100000000011110011 !
0$
#401
b00000000000000100000000011110011 !
0$
#402
b00000000000000100000000011110011 !
0$
#403
b00000000000000100000000011110011 !
0$
#404
b00000000000000100000000011110011 !
0$
#405
b00000000000000100000000011110011 !
0$
#406
b00000000000000100000000011110011 !
0$
#407
b00000000000000100000000011110011 !
0$
#408
b00000000000000100000000011110011 !
0$
#409
b00000000000000100000000011110011 !
0$
#410
b00000000000000100000000011110011 !
0$
#411
b00000000000000100000000011110011 !
0$
#412
b00000000000000100000000011110011 !
0$
#413
b00000000000000100000000011110011 !
0$
#414
b00000000000000100000000011110011 !
0$
#415
b00000000000000100000000011110011 !
0$
#416
b00000000000000100000000011110011 !
0$
#417
b00000000000000100000000011110011 !
0$
#418
b00000000000000100000000011110011 !
0$
#419
b00000000000000100000000011110011 !
0$
#420
b00000000000000100000000011110011 !
0$
#421
b00000000000000100000000011110011 !
0$
#422
b00000000000000100000000011110011 !
0$
#423
b00000000000000100000000011110011 !
0$
#424
b00000000000000100000000011110011 !
0$
#425
b00000000000000100000000011110011 !
0$
#426
b00000000000000100000000011110011 !
0$
#427
b00000000000000100000000011110011 !
0$
#428
b00000000000000100000000011110011 !
0$
#429
b00000000000000100000000011110011 !
0$
#430
b00000000000000100000000011110011 !
0$
#431
b00000000000000100000000011110011 !
0$
#432
b00000000000000100000000011110011 !
0$
#433
b00000000000000100000000011110011 !
0$
#434
b00000000000000100000000011110011 !
0$
#435
b00000000000000100000000011110011 !
0$
#436
b00000000000000100000000011110011 !
0$
#437
b00000000000000100000000011110011 !
0$
#438
b00000000000000100000000011110011 !
0$
#439
b00000000000000100000000011110011 !
0$
#440
b00000000000000100000000011110011 !
0$
#441
b00000000000000100000000011110011 !
0$
#442
b00000000000000100000000011110011 !
0$
#443
b00000000000000100000000011110011 !
0$
#444
b00000000000000100000000011110011 !
0$
#445
b00000000000000100000000011110011 !
0$
#446
b00000000000000100000000011110011 !
0$
#447
b00000000000000100000000011110011 !
0$
#448
b00000000000000100000000011110011 !
0$
#449
b00000000000000100000000011110011 !
0$
#450
b00000000000000100000000011110011 !
0$
#451
b00000000000000100000000011110011 !
0$
#452
b00000000000000100000000011110011 !
0$
#453
b00000000000000100000000011110011 !
0$
#454
b00000000000000100000000011110011 !
0$
#455
b00000000000000100000000011110011 !
0$
#456
b00000000000000100000000011110011 !
0$
#457
b00000000000000100000000011110011 !
0$
#458
b00000000000000100000000011110011 !
0$
#459
b00000000000000100000000011110011 !
0$
#460
b00000000000000100000000011110011 !
0$
#461
b00000000000000100000000011110011 !
0$
#462
b00000000000000100000000011110011 !
0$
#463
b00000000000000100000000011110011 !
0$
#464
b00000000000000100000000011110011 !
0$
#465
b00000000000000100000000011110011 !
0$
#466
b00000000000000100000000011110011 !
0$
#467
b00000000000000100000000011110011 !
0$
#468
b00000000000000100000000011110011 !
0$
#469
b00000000000000100000000011110011 !
0$
#470
b00000000000000100000000011110011 !
0$
#471
b00000000000000100000000011110011 !
0$
#472
b00000000000000100000000011110011 !
0$
#473
b00000000000000100000000011110011 !
0$
#474
b00000000000000100000000011110011 !
0$
#475
b00000000000000100000000011110011 !
0$
#476
b00000000000000100000000011110011 !
0$
#477
b00000000000000100000000011110011 !
0$
#478
b00000000000000100000000011110011 !
0$
#479
b00000000000000100000000011110011 !
0$
#480
b00000000000000100000000011110011 !
0$
#481
b00000000000000100000000011110011 !
0$
#482
b00000000000000100000000011110011 !
0$
#483
b00000000000000100000000011110011 !
0$
#484
b00000000000000100000000011110011 !
0$
#485
b00000000000000100000000011110011 !
0$
#486
b00000000000000100000000011110011 !
0$
#487
b00000000000000100000000011110011 !
0$
#488
b00000000000000100000000011110011 !
0$
#489
b00000000000000100000000011110011 !
0$
#490
b00000000000000100000000011110011 !
0$
#491
b00000000000000100000000011110011 !
0$
#492
b00000000000000100000000011110011 !
0$
#493
b00000000000000100000000011110011 !
0$
#494
b00000000000000100000000011110011 !
0$
#495
b00000000000000100000000011110011 !
0$
#496
b00000000000000100000000011110011 !
0$
#497
b00000000000000100000000011110011 !
0$
#498
b00000000000000100000000011110011 !
0$
#499
b00000000000000100000000011110011 !
0$
#500
b00000000000000100000000011110011 !
0$
#501
b00000000000000100000000011110011 !
0$
#502
b00000000000000100000000011110011 !
0$
#503
b00000000000000100000000011110011 !
0$
#504
b00000000000000100000000011110011 !
0$
#505
b00000000000000100000000011110011 !
0$
#506
b00000000000000100000000011110011 !
0$
#507
b00000000000000100000000011110011 !
0$
#508
b00000000000000100000000011110011 !
0$
#509
b00000000000000100000000011110011 !
0$
#510
b00000000000000100000000011110011 !
0$
#511
b00000000000000100000000011110011 !
0$
#512
b00000000000000100000000011110011 !
0$
#513
b00000000000000100000000011110011 !
0$
#514
b00000000000000100000000011110011 !
0$
#515
b00000000000000100000000011110011 !
0$
#516
b00000000000000100000000011110011 !
0$
#517
b00000000000000100000000011110011 !
0$
#518
b00000000000000100000000011110011 !
0$
#519
b00000000000000100000000011110011 !
0$
#520
b00000000000000100000000011110011 !
0$
#521
b00000000000000100000000011110011 !
0$
#522
b00000000000000100000000011110011 !
0$
#523
b00000000000000100000000011110011 !
0$
#524
b00000000000000100000000011110011 !
0$
#525
b00000000000000100000000011110011 !
0$
#526
b00000000000000100000000011110011 !
0$
#527
b00000000000000100000000011110011 !
0$
#528
b00000000000000100000000011110011 !
0$
#529
b00000000000000100000000011110011 !
0$
#530
b00000000000000100000000011110011 !
0$
#531
b00000000000000100000000011110011 !
0$
#532
b00000000000000100000000011110011 !
0$
#533
b00000000000000100000000011110011 !
0$
#534
b00000000000000100000000011110011 !
0$
#535
b00000000000000100000000011110011 !
0$
#536
b00000000000000100000000011110011 !
0$
#537
b00000000000000100000000011110011 !
0$
#538
b00000000000000100000000011110011 !
0$
#539
b00000000000000100000000011110011 !
0$
#540
b00000000000000100000000011110011 !
0$
#541
b00000000000000100000000011110011 !
0$
#542
b00000000000000100000000011110011 !
0$
#543
b00000000000000100000000011110011 !
0$
#544
b00000000000000100000000011110011 !
0$
#545
b00000000000000100000000011110011 !
0$
#546
b00000000000000100000000011110011 !
0$
#547
b00000000000000100000000011110011 !
0$
#548
b00000000000000100000000011110011 !
0$
#549
b00000000000000100000000011110011 !
0$
#550
b00000000000000100000000011110011 !
0$
#551
b00000000000000100000000011110011 !
0$
#552
b00000000000000100000000011110011 !
0$
#553
b00000000000000100000000011110011 !
0$
#554
b00000000000000100000000011110011 !
0$
#555
b00000000000000100000000011110011 !
0$
#556
b00000000000000100000000011110011 !
0$
#557
b00000000000000100000000011110011 !
0$
#558
b00000000000000100000000011110011 !
0$
#559
b00000000000000100000000011110011 !
0$
#560
b00000000000000100000000011110011 !
0$
#561
b00000000000000100000000011110011 !
0$
#562
b00000000000000100000000011110011 !
0$
#563
b00000000000000100000000011110011 !
0$
#564
b00000000000000100000000011110011 !
0$
#565
b00000000000000100000000011110011 !
0$
#566
b00000000000000100000000011110011 !
0$
#567
b00000000000000100000000011110011 !
0$
#568
b00000000000000100000000011110011 !
0$
#569
b00000000000000100000000011110011 !
0$
#570
b00000000000000100000000011110011 !
0$
#571
b00000000000000100000000011110011 !
0$
#572
b00000000000000100000000011110011 !
0$
#573
b00000000000000100000000011110011 !
0$
#574
b00000000000000100000000011110011 !
0$
#575
b00000000000000100000000011110011 !
0$
#576
b00000000000000100000000011110011 !
0$
#577
b00000000000000100000000011110011 !
0$
#578
b00000000000000100000000011110011 !
0$
#579
b00000000000000100000000011110011 !
0$
#580
b00000000000000100000000011110011 !
0$
#581
b00000000000000100000000011110011 !
0$
#582
b00000000000000100000000011110011 !
0$
#583
b00000000000000100000000011110011 !
0$
#584
b00000000000000100000000011110011 !
0$
#585
b00000000000000100000000011110011 !
0$
#586
b00000000000000100000000011110011 !
0$
#587
b00000000000000100000000011110011 !
0$
#588
b00000000000000100000000011110011 !
0$
#589
b00000000000000100000000011110011 !
0$
#590
b00000000000000100000000011110011 !
0$
#591
b00000000000000100000000011110011 !
0$
#592
b00000000000000100000000011110011 !
0$
#593
b00000000000000100000000011110011 !
0$
#594
b00000000000000100000000011110011 !
0$
#595
b00000000000000100000000011110011 !
0$
#596
b00000000000000100000000011110011 !
0$
#597
b00000000000000100000000011110011 !
0$
#598
b00000000000000100000000011110011 !
0$
#599
b00000000000000100000000011110011 !
0$
#600
b00000000000000100000000011110011 !
0$
#601
b00000000000000100000000011110011 !
0$
#602
b00000000000000100000000011110011 !
0$
#603
b00000000000000100000000011110011 !
0$
#604
b00000000000000100000000011110011 !
0$
#605
b00000000000000100000000011110011 !
0$
#606
b00000000000000100000000011110011 !
0$
#607
b00000000000000100000000011110011 !
0$
#608
b00000000000000100000000011110011 !
0$
#609
b00000000000000100000000011110011 !
0$
#610
b00000000000000100000000011110011 !
0$
#611
b00000000000000100000000011110011 !
0$
#612
b00000000000000100000000011110011 !
0$
#613
b00000000000000100000000011110011 !
0$
#614
b00000000000000100000000011110011 !
0$
#615
b00000000000000100000000011110011 !
0$
#616
b00000000000000100000000011110011 !
0$
#617
b00000000000000100000000011110011 !
0$
#618
b00000000000000100000000011110011 !
0$
#619
b00000000000000100000000011110011 !
0$
#620
b00000000000000100000000011110011 !
0$
#621
b00000000000000100000000011110011 !
0$
#622
b00000000000000100000000011110011 !
0$
#623
b00000000000000100000000011110011 !
0$
#624
b00000000000000100000000011110011 !
0$
#625
b00000000000000100000000011110011 !
0$
#626
b00000000000000100000000011110011 !
0$
#627
b00000000000000100000000011110011 !
0$
#628
b00000000000000100000000011110011 !
0$
#629
b00000000000000100000000011110011 !
0$
#630
b00000000000000100000000011110011 !
0$
#631
b00000000000000100000000011110011 !
0$
#632
b00000000000000100000000011110011 !
0$
#633
b00000000000000100000000011110011 !
0$
#634
b00000000000000100000000011110011 !
0$
#635
b00000000000000100000000011110011 !
0$
#636
b00000000000000100000000011110011 !
0$
#637
b00000000000000100000000011110011 !
0$
#638
b00000000000000100000000011110011 !
0$
#639
b00000000000000100000000011110011 !
0$
#640
b00000000000000100000000011110011 !
0$
#641
b00000000000000100000000011110011 !
0$
#642
b00000000000000100000000011110011 !
0$
#643
b00000000000000100000000011110011 !
0$
#644
b00000000000000100000000011110011 !
0$
#645
b00000000000000100000000011110011 !
0$
#646
b00000000000000100000000011110011 !
0$
#647
b00000000000000100000000011110011 !
0$
#648
b00000000000000100000000011110011 !
0$
#649
b00000000000000100000000011110011 !
0$
#650
b00000000000000100000000011110011 !
0$
#651
b00000000000000100000000011110011 !
0$
#652
b00000000000000100000000011110011 !
0$
#653
b00000000000000100000000011110011 !
0$
#654
b00000000000000100000000011110011 !
0$
#655
b00000000000000100000000011110011 !
0$
#656
b00000000000000100000000011110011 !
0$
#657
b00000000000000100000000011110011 !
0$
#658
b00000000000000100000000011110011 !
0$
#659
b00000000000000100000000011110011 !
0$
#660
b00000000000000100000000011110011 !
0$
#661
b00000000000000100000000011110011 !
0$
#662
b00000000000000100000000011110011 !
0$
#663
b00000000000000100000000011110011 !
0$
#664
b00000000000000100000000011110011 !
0$
#665
b00000000000000100000000011110011 !
0$
#666
b00000000000000100000000011110011 !
0$
#667
b00000000000000100000000011110011 !
0$
#668
b00000000000000100000000011110011 !
0$
#669
b00000000000000100000000011110011 !
0$
#670
b00000000000000100000000011110011 !
0$
#671
b00000000000000100000000011110011 !
0$
#672
b00000000000000100000000011110011 !
0$
#673
b00000000000000100000000011110011 !
0$
#674
b00000000000000100000000011110011 !
0$
#675
b00000000000000100000000011110011 !
0$
#676
b00000000000000100000000011110011 !
0$
#677
b00000000000000100000000011110011 !
0$
#678
b00000000000000100000000011110011 !
0$
#679
b00000000000000100000000011110011 !
0$
#680
b00000000000000100000000011110011 !
0$
#681
b00000000000000100000000011110011 !
0$
#682
b00000000000000100000000011110011 !
0$
#683
b00000000000000100000000011110011 !
0$
#684
b00000000000000100000000011110011 !
0$
#685
b00000000000000100000000011110011 !
0$
#686
b00000000000000100000000011110011 !
0$
#687
b00000000000000100000000011110011 !
0$
#688
b00000000000000100000000011110011 !
0$
#689
b00000000000000100000000011110011 !
0$
#690
b00000000000000100000000011110011 !
0$
#691
b00000000000000100000000011110011 !
0$
#692
b00000000000000100000000011110011 !
0$
#693
b00000000000000100000000011110011 !
0$
#694
b00000000000000100000000011110011 !
0$
#695
b00000000000000100000000011110011 !
0$
#696
b00000000000000100000000011110011 !
0$
#697
b00000000000000100000000011110011 !
0$
#698
b00000000000000100000000011110011 !
0$
#699
b00000000000000100000000011110011 !
0$
#700
b00000000000000100000000011110011 !
0$
#701
b00000000000000100000000011110011 !
0$
#702
b00000000000000100000000011110011 !
0$
#703
b00000000000000100000000011110011 !
0$
#704
b00000000000000100000000011110011 !
0$
#705
b00000000000000100000000011110011 !
0$
#706
b00000000000000100000000011110011 !
0$
#707
b00000000000000100000000011110011 !
0$
