ai/adxl345_solid_proof.vcd
$timescale 1 ns $end
$scope module top $end
$var wire 32 ! pc $end
$scope module bus $end
$var wire 32 " addr $end
$var wire 8 # data $end
$var wire 1 $ we $end
$upscope $end
$upscope $end
$enddefinitions $end
#0
b00000000000000000000010000000000 !
0$
#1
b00000000000000000000010000000010 !
0$
#2
b00000000000000000000010000000100 !
0$
#3
b00000000000000000000010000000110 !
0$
#4
b00000000000000000000010000001000 !
0$
#5
b00000000000000000000010000001010 !
0$
#6
b00000000000000000000010000001100 !
0$
#7
b00000000000000000000010000001110 !
0$
#8
b00000000000000000000010000010000 !
0$
#9
b00000000000000000000010000010010 !
0$
#10
b00000000000000000000010000010100 !
0$
#11
b00000000000000000000010000010110 !
0$
#12
b00000000000000000000010000011000 !
0$
#13
b00000000000000000000010000011010 !
0$
#14
b00000000000000000000010000011100 !
0$
#15
b00000000000000000000010000011110 !
0$
#16
b00000000000000000000010000100000 !
0$
#17
b00000000000000000000010000100010 !
0$
#18
b00000000000000000000010000100100 !
0$
#19
b00000000000000000000010000100110 !
0$
#20
b00000000000000000000010000101000 !
0$
#21
b00000000000000000000010000101010 !
0$
#22
b00000000000000000000010000101100 !
0$
#23
b00000000000000000000010000101110 !
0$
#24
b00000000000000000000010000110000 !
0$
#25
b00000000000000000000010000110010 !
0$
#26
b00000000000000000000010000110100 !
0$
#27
b00000000000000000000010000110110 !
0$
#28
b00000000000000000000010000111000 !
0$
#29
b00000000000000000000010000111010 !
0$
#30
b00000000000000000000010000111100 !
0$
#31
b00000000000000000000010000111110 !
0$
#32
b00000000000000000000010001000000 !
0$
#33
b00000000000000000000010001000010 !
0$
#34
b00000000000000000000010001000100 !
0$
#35
b00000000000000000000010001000110 !
0$
#36
b00000000000000000000010001001000 !
0$
#37
b00000000000000000000010001001010 !
0$
#38
b00000000000000000000010001001100 !
0$
#39
b00000000000000000000010001001110 !
0$
#40
b00000000000000000000010001010000 !
0$
#41
b00000000000000000000010001010010 !
0$
#42
b00000000000000000000010001010100 !
0$
#43
b00000000000000000000010001010110 !
0$
#44
b00000000000000000000010001011000 !
0$
#45
b00000000000000000000010001011010 !
0$
#46
b00000000000000000000010001011100 !
0$
#47
b00000000000000000000010001011110 !
0$
#48
b00000000000000000000010001100000 !
0$
#49
b00000000000000000000010001100010 !
0$
#50
b00000000000000000000010001100100 !
0$
#51
b00000000000000000000010001100110 !
0$
#52
b00000000000000000000010001101000 !
0$
#53
b00000000000000000000010001101010 !
0$
#54
b00000000000000000000010001101100 !
0$
#55
b00000000000000000000010001101110 !
0$
#56
b00000000000000000000010001110000 !
0$
#57
b00000000000000000000010001110010 !
0$
#58
b00000000000000000000010001110100 !
0$
#59
b00000000000000000000010001110110 !
0$
#60
b00000000000000000000010001111000 !
0$
#61
b00000000000000000000010001111010 !
0$
#62
b00000000000000000000010001111100 !
0$
#63
b00000000000000000000010001111110 !
0$
#64
b00000000000000000000010010000000 !
0$
#65
b00000000000000000000010010000010 !
0$
#66
b00000000000000000000010010000100 !
0$
#67
b00000000000000000000010010000110 !
0$
#68
b00000000000000000000010010001000 !
0$
#69
b00000000000000000000010010001010 !
0$
#70
b00000000000000000000010010001100 !
0$
#71
b00000000000000000000010010001110 !
0$
#72
b00000000000000000000010010010000 !
0$
#73
b00000000000000000000010010010010 !
0$
#74
b00000000000000000000010010010100 !
0$
#75
b00000000000000000000010010010110 !
0$
#76
b00000000000000000000010010011000 !
0$
#77
b00000000000000000000010010011010 !
0$
#78
b00000000000000000000010010011100 !
0$
#79
b00000000000000000000010010011110 !
0$
#80
b00000000000000000000010010100000 !
0$
#81
b00000000000000000000010010100010 !
0$
#82
b00000000000000000000010010100100 !
0$
#83
b00000000000000000000010010100110 !
0$
#84
b00000000000000000000010010101000 !
0$
#85
b00000000000000000000010010101010 !
0$
#86
b00000000000000000000010010101100 !
0$
#87
b00000000000000000000010010101110 !
0$
#88
b00000000000000000000010010110000 !
0$
#89
b00000000000000000000010010110010 !
0$
#90
b00000000000000000000010010110100 !
0$
#91
b00000000000000000000010010110110 !
0$
#92
b00000000000000000000010010111000 !
0$
#93
b00000000000000000000010010111010 !
0$
#94
b00000000000000000000010010111100 !
0$
#95
b00000000000000000000010010111110 !
0$
#96
b00000000000000000000010011000000 !
0$
#97
b00000000000000000000010011000010 !
0$
#98
b00000000000000000000010011000100 !
0$
#99
b00000000000000000000010011000110 !
0$
#100
b00000000000000000000010011001000 !
0$
#101
b00000000000000000000010011001010 !
0$
#102
b00000000000000000000010011001100 !
0$
#103
b00000000000000000000010011001110 !
0$
#104
b00000000000000000000010011010000 !
0$
#105
b00000000000000000000010011010010 !
0$
#106
b00000000000000000000010011010100 !
0$
#107
b00000000000000000000010011010110 !
0$
#108
b00000000000000000000010011011000 !
0$
#109
b00000000000000000000010011011010 !
0$
#110
b00000000000000000000010011011100 !
0$
#111
b00000000000000000000010011011110 !
0$
#112
b00000000000000000000010011100000 !
0$
#113
b00000000000000000000010011100010 !
0$
#114
b00000000000000000000010011100100 !
0$
#115
b00000000000000000000010011100110 !
0$
#116
b00000000000000000000010011101000 !
0$
#117
b00000000000000000000010011101010 !
0$
#118
b00000000000000000000010011101100 !
0$
#119
b00000000000000000000010011101110 !
0$
#120
b00000000000000000000010011110000 !
0$
#121
b00000000000000000000010011110010 !
0$
#122
b00000000000000000000010011110100 !
0$
#123
b00000000000000000000010011110110 !
0$
#124
b00000000000000000000010011111000 !
0$
#125
b00000000000000000000010011111010 !
0$
#126
b00000000000000000000010011111100 !
0$
#127
b00000000000000000000010011111110 !
0$
#128
b00000000000000000000010100000000 !
0$
#129
b00000000000000000000010100000010 !
0$
#130
b00000000000000000000010100000100 !
0$
#131
b00000000000000000000010100000110 !
0$
#132
b00000000000000000000010100001000 !
0$
#133
b00000000000000000000010100001010 !
0$
#134
b00000000000000000000010100001100 !
0$
#135
b00000000000000000000010100001110 !
0$
#136
b00000000000000000000010100010000 !
0$
#137
b00000000000000000000010100010010 !
0$
#138
b00000000000000000000010100010100 !
0$
#139
b00000000000000000000010100010110 !
0$
#140
b00000000000000000000010100011000 !
0$
#141
b00000000000000000000010100011010 !
0$
#142
b00000000000000000000010100011100 !
0$
#143
b00000000000000000000010100011110 !
0$
#144
b00000000000000000000010100100000 !
0$
#145
b00000000000000000000010100100010 !
0$
#146
b00000000000000000000010100100100 !
0$
#147
b00000000000000000000010100100110 !
0$
#148
b00000000000000000000010100101000 !
0$
#149
b00000000000000000000010100101010 !
0$
#150
b00000000000000000000010100101100 !
0$
#151
b00000000000000000000010100101110 !
0$
#152
b00000000000000000000010100110000 !
0$
#153
b00000000000000000000010100110010 !
0$
#154
b00000000000000000000010100110100 !
0$
#155
b00000000000000000000010100110110 !
0$
#156
b00000000000000000000010100111000 !
0$
#157
b00000000000000000000010100111010 !
0$
#158
b00000000000000000000010100111100 !
0$
#159
b00000000000000000000010100111110 !
0$
#160
b00000000000000000000010101000000 !
0$
#161
b00000000000000000000010101000010 !
0$
#162
b00000000000000000000010101000100 !
0$
#163
b00000000000000000000010101000110 !
0$
#164
b00000000000000000000010101001000 !
0$
#165
b00000000000000000000010101001010 !
0$
#166
b00000000000000000000010101001100 !
0$
#167
b00000000000000000000010101001110 !
0$
#168
b00000000000000000000010101010000 !
0$
#169
b00000000000000000000010101010010 !
0$
#170
b00000000000000000000010101010100 !
0$
#171
b00000000000000000000010101010110 !
0$
#172
b00000000000000000000010101011000 !
0$
#173
b00000000000000000000010101011010 !
0$
#174
b00000000000000000000010101011100 !
0$
#175
b00000000000000000000010101011110 !
0$
#176
b00000000000000000000010101100000 !
0$
#177
b00000000000000000000010101100010 !
0$
#178
b00000000000000000000010101100100 !
0$
#179
b00000000000000000000010101100110 !
0$
#180
b00000000000000000000010101101000 !
0$
#181
b00000000000000000000010101101010 !
0$
#182
b00000000000000000000010101101100 !
0$
#183
b00000000000000000000010101101110 !
0$
#184
b00000000000000000000010101110000 !
0$
#185
b00000000000000000000010101110010 !
0$
#186
b00000000000000000000010101110100 !
0$
#187
b00000000000000000000010101110110 !
0$
#188
b00000000000000000000010101111000 !
0$
#189
b00000000000000000000010101111010 !
0$
#190
b00000000000000000000010101111100 !
0$
#191
b00000000000000000000010101111110 !
0$
#192
b00000000000000000000010110000000 !
0$
#193
b00000000000000000000010110000010 !
0$
#194
b00000000000000000000010110000100 !
0$
#195
b00000000000000000000010110000110 !
0$
#196
b00000000000000000000010110001000 !
0$
#197
b00000000000000000000010110001010 !
0$
#198
b00000000000000000000010110001100 !
0$
#199
b00000000000000000000010110001110 !
0$
#200
b00000000000000000000010110010000 !
0$
#201
b00000000000000000000010110010010 !
0$
#202
b00000000000000000000010110010100 !
0$
#203
b00000000000000000000010110010110 !
0$
#204
b00000000000000000000010110011000 !
0$
#205
b00000000000000000000010110011010 !
0$
#206
b00000000000000000000010110011100 !
0$
#207
b00000000000000000000010110011110 !
0$
#208
b00000000000000000000010110100000 !
0$
#209
b00000000000000000000010110100010 !
0$
#210
b00000000000000000000010110100100 !
0$
#211
b00000000000000000000010110100110 !
0$
#212
b00000000000000000000010110101000 !
0$
#213
b00000000000000000000010110101010 !
0$
#214
b00000000000000000000010110101100 !
0$
#215
b00000000000000000000010110101110 !
0$
#216
b00000000000000000000010110110000 !
0$
#217
b00000000000000000000010110110010 !
0$
#218
b00000000000000000000010110110100 !
0$
#219
b00000000000000000000010110110110 !
0$
#220
b00000000000000000000010110111000 !
0$
#221
b00000000000000000000010110111010 !
0$
#222
b00000000000000000000010110111100 !
0$
#223
b00000000000000000000010110111110 !
0$
#224
b00000000000000000000010111000000 !
0$
#225
b00000000000000000000010111000010 !
0$
#226
b00000000000000000000010111000100 !
0$
#227
b00000000000000000000010111000110 !
0$
#228
b00000000000000000000010111001000 !
0$
#229
b00000000000000000000010111001010 !
0$
#230
b00000000000000000000010111001100 !
0$
#231
b00000000000000000000010111001110 !
0$
#232
b00000000000000000000010111010000 !
0$
#233
b00000000000000000000010111010010 !
0$
#234
b00000000000000000000010111010100 !
0$
#235
b00000000000000000000010111010110 !
0$
#236
b00000000000000000000010111011000 !
0$
#237
b00000000000000000000010111011010 !
0$
#238
b00000000000000000000010111011100 !
0$
#239
b00000000000000000000010111011110 !
0$
#240
b00000000000000000000010111100000 !
0$
#241
b00000000000000000000010111100010 !
0$
#242
b00000000000000000000010111100100 !
0$
#243
b00000000000000000000010111100110 !
0$
#244
b00000000000000000000010111101000 !
0$
#245
b00000000000000000000010111101010 !
0$
#246
b00000000000000000000010111101100 !
0$
#247
b00000000000000000000010111101110 !
0$
#248
b00000000000000000000010111110000 !
0$
#249
b00000000000000000000010111110010 !
0$
#250
b00000000000000000000010111110100 !
0$
#251
b00000000000000000000010111110110 !
0$
#252
b00000000000000000000010111111000 !
0$
#253
b00000000000000000000010111111010 !
0$
#254
b00000000000000000000010111111100 !
0$
#255
b00000000000000000000010111111110 !
0$
#256
b00000000000000000000011000000000 !
0$
#257
b00000000000000000000011000000010 !
0$
#258
b00000000000000000000011000000100 !
0$
#259
b00000000000000000000011000000110 !
0$
#260
b00000000000000000000011000001000 !
0$
#261
b00000000000000000000011000001010 !
0$
#262
b00000000000000000000011000001100 !
0$
#263
b00000000000000000000011000001110 !
0$
#264
b00000000000000000000011000010000 !
0$
#265
b00000000000000000000011000010010 !
0$
#266
b00000000000000000000011000010100 !
0$
#267
b00000000000000000000011000010110 !
0$
#268
b00000000000000000000011000011000 !
0$
#269
b00000000000000000000011000011010 !
0$
#270
b00000000000000000000011000011100 !
0$
#271
b00000000000000000000011000011110 !
0$
#272
b00000000000000000000011000100000 !
0$
#273
b00000000000000000000011000100010 !
0$
#274
b00000000000000000000011000100100 !
0$
#275
b00000000000000000000011000100110 !
0$
#276
b00000000000000000000011000101000 !
0$
#277
b00000000000000000000011000101010 !
0$
#278
b00000000000000000000011000101100 !
0$
#279
b00000000000000000000011000101110 !
0$
#280
b00000000000000000000011000110000 !
0$
#281
b00000000000000000000011000110010 !
0$
#282
b00000000000000000000011000110100 !
0$
#283
b00000000000000000000011000110110 !
0$
#284
b00000000000000000000011000111000 !
0$
#285
b00000000000000000000011000111010 !
0$
#286
b00000000000000000000011000111100 !
0$
#287
b00000000000000000000011000111110 !
0$
#288
b00000000000000000000011001000000 !
0$
#289
b00000000000000000000011001000010 !
0$
#290
b00000000000000000000011001000100 !
0$
#291
b00000000000000000000011001000110 !
0$
#292
b00000000000000000000011001001000 !
0$
#293
b00000000000000000000011001001010 !
0$
#294
b00000000000000000000011001001100 !
0$
#295
b00000000000000000000011001001110 !
0$
#296
b00000000000000000000011001010000 !
0$
#297
b00000000000000000000011001010010 !
0$
#298
b00000000000000000000011001010100 !
0$
#299
b00000000000000000000011001010110 !
0$
#300
b00000000000000000000011001011000 !
0$
#301
b00000000000000000000011001011010 !
0$
#302
b00000000000000000000011001011100 !
0$
#303
b00000000000000000000011001011110 !
0$
#304
b00000000000000000000011001100000 !
0$
#305
b00000000000000000000011001100010 !
0$
#306
b00000000000000000000011001100100 !
0$
#307
b00000000000000000000011001100110 !
0$
#308
b00000000000000000000011001101000 !
0$
#309
b00000000000000000000011001101010 !
0$
#310
b00000000000000000000011001101100 !
0$
#311
b00000000000000000000011001101110 !
0$
#312
b00000000000000000000011001110000 !
0$
#313
b00000000000000000000011001110010 !
0$
#314
b00000000000000000000011001110100 !
0$
#315
b00000000000000000000011001110110 !
0$
#316
b00000000000000000000011001111000 !
0$
#317
b00000000000000000000011001111010 !
0$
#318
b00000000000000000000011001111100 !
0$
#319
b00000000000000000000011001111110 !
0$
#320
b00000000000000000000011010000000 !
0$
#321
b00000000000000000000011010000010 !
0$
#322
b00000000000000000000011010000100 !
0$
#323
b00000000000000000000011010000110 !
0$
#324
b00000000000000000000011010001000 !
0$
#325
b00000000000000000000011010001010 !
0$
#326
b00000000000000000000011010001100 !
0$
#327
b00000000000000000000011010001110 !
0$
#328
b00000000000000000000011010010000 !
0$
#329
b00000000000000000000011010010010 !
0$
#330
b00000000000000000000011010010100 !
0$
#331
b00000000000000000000011010010110 !
0$
#332
b00000000000000000000011010011000 !
0$
#333
b00000000000000000000011010011010 !
0$
#334
b00000000000000000000011010011100 !
0$
#335
b00000000000000000000011010011110 !
0$
#336
b00000000000000000000011010100000 !
0$
#337
b00000000000000000000011010100010 !
0$
#338
b00000000000000000000011010100100 !
0$
#339
b00000000000000000000011010100110 !
0$
#340
b00000000000000000000011010101000 !
0$
#341
b00000000000000000000011010101010 !
0$
#342
b00000000000000000000011010101100 !
0$
#343
b00000000000000000000011010101110 !
0$
#344
b00000000000000000000011010110000 !
0$
#345
b00000000000000000000011010110010 !
0$
#346
b00000000000000000000011010110100 !
0$
#347
b00000000000000000000011010110110 !
0$
#348
b00000000000000000000011010111000 !
0$
#349
b00000000000000000000011010111010 !
0$
#350
b00000000000000000000011010111100 !
0$
#351
b00000000000000000000011010111110 !
0$
#352
b00000000000000000000011011000000 !
0$
#353
b00000000000000000000011011000010 !
0$
#354
b00000000000000000000011011000100 !
0$
#355
b00000000000000000000011011000110 !
0$
#356
b00000000000000000000011011001000 !
0$
#357
b00000000000000000000011011001010 !
0$
#358
b00000000000000000000011011001100 !
0$
#359
b00000000000000000000011011001110 !
0$
#360
b00000000000000000000011011010000 !
0$
#361
b00000000000000000000011011010010 !
0$
#362
b00000000000000000000011011010100 !
0$
#363
b00000000000000000000011011010110 !
0$
#364
b00000000000000000000011011011000 !
0$
#365
b00000000000000000000011011011010 !
0$
#366
b00000000000000000000011011011100 !
0$
#367
b00000000000000000000011011011110 !
0$
#368
b00000000000000000000011011100000 !
0$
#369
b00000000000000000000011011100010 !
0$
#370
b00000000000000000000011011100100 !
0$
#371
b00000000000000000000011011100110 !
0$
#372
b00000000000000000000011011101000 !
0$
#373
b00000000000000000000011011101010 !
0$
#374
b00000000000000000000011011101100 !
0$
#375
b00000000000000000000011011101110 !
0$
#376
b00000000000000000000011011110000 !
0$
#377
b00000000000000000000011011110010 !
0$
#378
b00000000000000000000011011110100 !
0$
#379
b00000000000000000000011011110110 !
0$
#380
b00000000000000000000011011111000 !
0$
#381
b00000000000000000000011011111010 !
0$
#382
b00000000000000000000011011111100 !
0$
#383
b00000000000000000000011011111110 !
0$
#384
b00000000000000000000011100000000 !
0$
#385
b00000000000000000000011100000010 !
0$
#386
b00000000000000000000011100000100 !
0$
#387
b00000000000000000000011100000110 !
0$
#388
b00000000000000000000011100001000 !
0$
#389
b00000000000000000000011100001010 !
0$
#390
b00000000000000000000011100001100 !
0$
#391
b00000000000000000000011100001110 !
0$
#392
b00000000000000000000011100010000 !
0$
#393
b00000000000000000000011100010010 !
0$
#394
b00000000000000000000011100010100 !
0$
#395
b00000000000000000000011100010110 !
0$
#396
b00000000000000000000011100011000 !
0$
#397
b00000000000000000000011100011010 !
0$
#398
b00000000000000000000011100011100 !
0$
#399
b00000000000000000000011100011110 !
0$
#400
b00000000000000000000011100100000 !
0$
#401
b00000000000000000000011100100010 !
0$
#402
b00000000000000000000011100100100 !
0$
#403
b00000000000000000000011100100110 !
0$
#404
b00000000000000000000011100101000 !
0$
#405
b00000000000000000000011100101010 !
0$
#406
b00000000000000000000011100101100 !
0$
#407
b00000000000000000000011100101110 !
0$
#408
b00000000000000000000011100110000 !
0$
#409
b00000000000000000000011100110010 !
0$
#410
b00000000000000000000011100110100 !
0$
#411
b00000000000000000000011100110110 !
0$
#412
b00000000000000000000011100111000 !
0$
#413
b00000000000000000000011100111010 !
0$
#414
b00000000000000000000011100111100 !
0$
#415
b00000000000000000000011100111110 !
0$
#416
b00000000000000000000011101000000 !
0$
#417
b00000000000000000000011101000010 !
0$
#418
b00000000000000000000011101000100 !
0$
#419
b00000000000000000000011101000110 !
0$
#420
b00000000000000000000011101001000 !
0$
#421
b00000000000000000000011101001010 !
0$
#422
b00000000000000000000011101001100 !
0$
#423
b00000000000000000000011101001110 !
0$
#424
b00000000000000000000011101010000 !
0$
#425
b00000000000000000000011101010010 !
0$
#426
b00000000000000000000011101010100 !
0$
#427
b00000000000000000000011101010110 !
0$
#428
b00000000000000000000011101011000 !
0$
#429
b00000000000000000000011101011010 !
0$
#430
b00000000000000000000011101011100 !
0$
#431
b00000000000000000000011101011110 !
0$
#432
b00000000000000000000011101100000 !
0$
#433
b00000000000000000000011101100010 !
0$
#434
b00000000000000000000011101100100 !
0$
#435
b00000000000000000000011101100110 !
0$
#436
b00000000000000000000011101101000 !
0$
#437
b00000000000000000000011101101010 !
0$
#438
b00000000000000000000011101101100 !
0$
#439
b00000000000000000000011101101110 !
0$
#440
b00000000000000000000011101110000 !
0$
#441
b00000000000000000000011101110010 !
0$
#442
b00000000000000000000011101110100 !
0$
#443
b00000000000000000000011101110110 !
0$
#444
b00000000000000000000011101111000 !
0$
#445
b00000000000000000000011101111010 !
0$
#446
b00000000000000000000011101111100 !
0$
#447
b00000000000000000000011101111110 !
0$
#448
b00000000000000000000011110000000 !
0$
#449
b00000000000000000000011110000010 !
0$
#450
b00000000000000000000011110000100 !
0$
#451
b00000000000000000000011110000110 !
0$
#452
b00000000000000000000011110001000 !
0$
#453
b00000000000000000000011110001010 !
0$
#454
b00000000000000000000011110001100 !
0$
#455
b00000000000000000000011110001110 !
0$
#456
b00000000000000000000011110010000 !
0$
#457
b00000000000000000000011110010010 !
0$
#458
b00000000000000000000011110010100 !
0$
#459
b00000000000000000000011110010110 !
0$
#460
b00000000000000000000011110011000 !
0$
#461
b00000000000000000000011110011010 !
0$
#462
b00000000000000000000011110011100 !
0$
#463
b00000000000000000000011110011110 !
0$
#464
b00000000000000000000011110100000 !
0$
#465
b00000000000000000000011110100010 !
0$
#466
b00000000000000000000011110100100 !
0$
#467
b00000000000000000000011110100110 !
0$
#468
b00000000000000000000011110101000 !
0$
#469
b00000000000000000000011110101010 !
0$
#470
b00000000000000000000011110101100 !
0$
#471
b00000000000000000000011110101110 !
0$
#472
b00000000000000000000011110110000 !
0$
#473
b00000000000000000000011110110010 !
0$
#474
b00000000000000000000011110110100 !
0$
#475
b00000000000000000000011110110110 !
0$
#476
b00000000000000000000011110111000 !
0$
#477
b00000000000000000000011110111010 !
0$
#478
b00000000000000000000011110111100 !
0$
#479
b00000000000000000000011110111110 !
0$
#480
b00000000000000000000011111000000 !
0$
#481
b00000000000000000000011111000010 !
0$
#482
b00000000000000000000011111000100 !
0$
#483
b00000000000000000000011111000110 !
0$
#484
b00000000000000000000011111001000 !
0$
#485
b00000000000000000000011111001010 !
0$
#486
b00000000000000000000011111001100 !
0$
#487
b00000000000000000000011111001110 !
0$
#488
b00000000000000000000011111010000 !
0$
#489
b00000000000000000000011111010010 !
0$
#490
b00000000000000000000011111010100 !
0$
#491
b00000000000000000000011111010110 !
0$
#492
b00000000000000000000011111011000 !
0$
#493
b00000000000000000000011111011010 !
0$
#494
b00000000000000000000011111011100 !
0$
#495
b00000000000000000000011111011110 !
0$
#496
b00000000000000000000011111100000 !
0$
#497
b00000000000000000000011111100010 !
0$
#498
b00000000000000000000011111100100 !
0$
#499
b00000000000000000000011111100110 !
0$
#500
b00000000000000000000011111101000 !
0$
#501
b00000000000000000000011111101010 !
0$
#502
b00000000000000000000011111101100 !
0$
#503
b00000000000000000000011111101110 !
0$
#504
b00000000000000000000011111110000 !
0$
#505
b00000000000000000000011111110010 !
0$
#506
b00000000000000000000011111110100 !
0$
#507
b00000000000000000000011111110110 !
0$
#508
b00000000000000000000011111111000 !
0$
#509
b00000000000000000000011111111010 !
0$
#510
b00000000000000000000011111111100 !
0$
#511
b00000000000000000000011111111110 !
0$
#512
b00000000000000000000100000000000 !
0$
#513
b00000000000000000000100000000010 !
0$
#514
b00000000000000000000100000000100 !
0$
#515
b00000000000000000000100000000110 !
0$
#516
b00000000000000000000100000001000 !
0$
#517
b00000000000000000000100000001010 !
0$
#518
b00000000000000000000100000001100 !
0$
#519
b00000000000000000000100000001110 !
0$
#520
b00000000000000000000100000010000 !
0$
#521
b00000000000000000000100000010010 !
0$
#522
b00000000000000000000100000010100 !
0$
#523
b00000000000000000000100000010110 !
0$
#524
b00000000000000000000100000011000 !
0$
#525
b00000000000000000000100000011010 !
0$
#526
b00000000000000000000100000011100 !
0$
#527
b00000000000000000000100000011110 !
0$
#528
b00000000000000000000100000100000 !
0$
#529
b00000000000000000000100000100010 !
0$
#530
b00000000000000000000100000100100 !
0$
#531
b00000000000000000000100000100110 !
0$
#532
b00000000000000000000100000101000 !
0$
#533
b00000000000000000000100000101010 !
0$
#534
b00000000000000000000100000101100 !
0$
#535
b00000000000000000000100000101110 !
0$
#536
b00000000000000000000100000110000 !
0$
#537
b00000000000000000000100000110010 !
0$
#538
b00000000000000000000100000110100 !
0$
#539
b00000000000000000000100000110110 !
0$
#540
b00000000000000000000100000111000 !
0$
#541
b00000000000000000000100000111010 !
0$
#542
b00000000000000000000100000111100 !
0$
#543
b00000000000000000000100000111110 !
0$
#544
b00000000000000000000100001000000 !
0$
#545
b00000000000000000000100001000010 !
0$
#546
b00000000000000000000100001000100 !
0$
#547
b00000000000000000000100001000110 !
0$
#548
b00000000000000000000100001001000 !
0$
#549
b00000000000000000000100001001010 !
0$
#550
b00000000000000000000100001001100 !
0$
#551
b00000000000000000000100001001110 !
0$
#552
b00000000000000000000100001010000 !
0$
#553
b00000000000000000000100001010010 !
0$
#554
b00000000000000000000100001010100 !
0$
#555
b00000000000000000000100001010110 !
0$
#556
b00000000000000000000100001011000 !
0$
#557
b00000000000000000000100001011010 !
0$
#558
b00000000000000000000100001011100 !
0$
#559
b00000000000000000000100001011110 !
0$
#560
b00000000000000000000100001100000 !
0$
#561
b00000000000000000000100001100010 !
0$
#562
b00000000000000000000100001100100 !
0$
#563
b00000000000000000000100001100110 !
0$
#564
b00000000000000000000100001101000 !
0$
#565
b00000000000000000000100001101010 !
0$
#566
b00000000000000000000100001101100 !
0$
#567
b00000000000000000000100001101110 !
0$
#568
b00000000000000000000100001110000 !
0$
#569
b00000000000000000000100001110010 !
0$
#570
b00000000000000000000100001110100 !
0$
#571
b00000000000000000000100001110110 !
0$
#572
b00000000000000000000100001111000 !
0$
#573
b00000000000000000000100001111010 !
0$
#574
b00000000000000000000100001111100 !
0$
#575
b00000000000000000000100001111110 !
0$
#576
b00000000000000000000100010000000 !
0$
#577
b00000000000000000000100010000010 !
0$
#578
b00000000000000000000100010000100 !
0$
#579
b00000000000000000000100010000110 !
0$
#580
b00000000000000000000100010001000 !
0$
#581
b00000000000000000000100010001010 !
0$
#582
b00000000000000000000100010001100 !
0$
#583
b00000000000000000000100010001110 !
0$
#584
b00000000000000000000100010010000 !
0$
#585
b00000000000000000000100010010010 !
0$
#586
b00000000000000000000100010010100 !
0$
#587
b00000000000000000000100010010110 !
0$
#588
b00000000000000000000100010011000 !
0$
#589
b00000000000000000000100010011010 !
0$
#590
b00000000000000000000100010011100 !
0$
#591
b00000000000000000000100010011110 !
0$
#592
b00000000000000000000100010100000 !
0$
#593
b00000000000000000000100010100010 !
0$
#594
b00000000000000000000100010100100 !
0$
#595
b00000000000000000000100010100110 !
0$
#596
b00000000000000000000100010101000 !
0$
#597
b00000000000000000000100010101010 !
0$
#598
b00000000000000000000100010101100 !
0$
#599
b00000000000000000000100010101110 !
0$
#600
b00000000000000000000100010110000 !
0$
#601
b00000000000000000000100010110010 !
0$
#602
b00000000000000000000100010110100 !
0$
#603
b00000000000000000000100010110110 !
0$
#604
b00000000000000000000100010111000 !
0$
#605
b00000000000000000000100010111010 !
0$
#606
b00000000000000000000100010111100 !
0$
#607
b00000000000000000000100010111110 !
0$
#608
b00000000000000000000100011000000 !
0$
#609
b00000000000000000000100011000010 !
0$
#610
b00000000000000000000100011000100 !
0$
#611
b00000000000000000000100011000110 !
0$
#612
b00000000000000000000100011001000 !
0$
#613
b00000000000000000000100011001010 !
0$
#614
b00000000000000000000100011001100 !
0$
#615
b00000000000000000000100011001110 !
0$
#616
b00000000000000000000100011010000 !
0$
#617
b00000000000000000000100011010010 !
0$
#618
b00000000000000000000100011010100 !
0$
#619
b00000000000000000000100011010110 !
0$
#620
b00000000000000000000100011011000 !
0$
#621
b00000000000000000000100011011010 !
0$
#622
b00000000000000000000100011011100 !
0$
#623
b00000000000000000000100011011110 !
0$
#624
b00000000000000000000100011100000 !
0$
#625
b00000000000000000000100011100010 !
0$
#626
b00000000000000000000100011100100 !
0$
#627
b00000000000000000000100011100110 !
0$
#628
b00000000000000000000100011101000 !
0$
#629
b00000000000000000000100011101010 !
0$
#630
b00000000000000000000100011101100 !
0$
#631
b00000000000000000000100011101110 !
0$
#632
b00000000000000000000100011110000 !
0$
#633
b00000000000000000000100011110010 !
0$
#634
b00000000000000000000100011110100 !
0$
#635
b00000000000000000000100011110110 !
0$
#636
b00000000000000000000100011111000 !
0$
#637
b00000000000000000000100011111010 !
0$
#638
b00000000000000000000100011111100 !
0$
#639
b00000000000000000000100011111110 !
0$
#640
b00000000000000000000100100000000 !
0$
#641
b00000000000000000000100100000010 !
0$
#642
b00000000000000000000100100000100 !
0$
#643
b00000000000000000000100100000110 !
0$
#644
b00000000000000000000100100001000 !
0$
#645
b00000000000000000000100100001010 !
0$
#646
b00000000000000000000100100001100 !
0$
#647
b00000000000000000000100100001110 !
0$
#648
b00000000000000000000100100010000 !
0$
#649
b00000000000000000000100100010010 !
0$
#650
b00000000000000000000100100010100 !
0$
#651
b00000000000000000000100100010110 !
0$
#652
b00000000000000000000100100011000 !
0$
#653
b00000000000000000000100100011010 !
0$
#654
b00000000000000000000100100011100 !
0$
#655
b00000000000000000000100100011110 !
0$
#656
b00000000000000000000100100100000 !
0$
#657
b00000000000000000000100100100010 !
0$
#658
b00000000000000000000100100100100 !
0$
#659
b00000000000000000000100100100110 !
0$
#660
b00000000000000000000100100101000 !
0$
#661
b00000000000000000000100100101010 !
0$
#662
b00000000000000000000100100101100 !
0$
#663
b00000000000000000000100100101110 !
0$
#664
b00000000000000000000100100110000 !
0$
#665
b00000000000000000000100100110010 !
0$
#666
b00000000000000000000100100110100 !
0$
#667
b00000000000000000000100100110110 !
0$
#668
b00000000000000000000100100111000 !
0$
#669
b00000000000000000000100100111010 !
0$
#670
b00000000000000000000100100111100 !
0$
#671
b00000000000000000000100100111110 !
0$
#672
b00000000000000000000100101000000 !
0$
#673
b00000000000000000000100101000010 !
0$
#674
b00000000000000000000100101000100 !
0$
#675
b00000000000000000000100101000110 !
0$
#676
b00000000000000000000100101001000 !
0$
#677
b00000000000000000000100101001010 !
0$
#678
b00000000000000000000100101001100 !
0$
#679
b00000000000000000000100101001110 !
0$
#680
b00000000000000000000100101010000 !
0$
#681
b00000000000000000000100101010010 !
0$
#682
b00000000000000000000100101010100 !
0$
#683
b00000000000000000000100101010110 !
0$
#684
b00000000000000000000100101011000 !
0$
#685
b00000000000000000000100101011010 !
0$
#686
b00000000000000000000100101011100 !
0$
#687
b00000000000000000000100101011110 !
0$
#688
b00000000000000000000100101100000 !
0$
#689
b00000000000000000000100101100010 !
0$
#690
b00000000000000000000100101100100 !
0$
#691
b00000000000000000000100101100110 !
0$
#692
b00000000000000000000100101101000 !
0$
#693
b00000000000000000000100101101010 !
0$
#694
b00000000000000000000100101101100 !
0$
#695
b00000000000000000000100101101110 !
0$
#696
b00000000000000000000100101110000 !
0$
#697
b00000000000000000000100101110010 !
0$
#698
b00000000000000000000100101110100 !
0$
#699
b00000000000000000000100101110110 !
0$
#700
b00000000000000000000100101111000 !
0$
#701
b00000000000000000000100101111010 !
0$
#702
b00000000000000000000100101111100 !
0$
#703
b00000000000000000000100101111110 !
0$
#704
b00000000000000000000100110000000 !
0$
#705
b00000000000000000000100110000010 !
0$
#706
b00000000000000000000100110000100 !
0$
#707
b00000000000000000000100110000110 !
0$
